{
  "name": "sink-stockmanagement",
  "config": {
    "connector.class": "io.confluent.connect.jdbc.JdbcSinkConnector",
    "tasks.max": "1",
    "topics": "public.kafka_available_stock_card_fields,public.kafka_available_stock_card_line_item_fields,public.kafka_calculated_stocks_on_hand,public.kafka_nodes,public.kafka_stock_organizations,public.kafka_stock_physical_inventories,public.kafka_physical_inventory_line_item_adjustments,public.kafka_physical_inventory_line_items,public.kafka_stock_card_fields,public.stock_card_line_item_reason_tags,public.kafka_stock_card_line_item_reasons,public.kafka_stock_card_line_items,public.kafka_stock_cards,public.kafka_stock_event_line_items,public.kafka_stock_events,public.kafka_valid_destination_assignments,public.kafka_valid_reason_assignments,public.kafka_valid_source_assignments",
    "connection.url": "jdbc:postgresql://reporting-db:5432/open_lmis_reporting?stringtype=unspecified",
    "connection.user": "postgres",
    "connection.password": "p@ssw0rd",
    "auto.create": "true",
    "insert.mode": "upsert",
    "pk.fields": "id",
    "pk.mode": "record_key",
    "delete.enabled": "true"
  }
}
